# est-pca --dim=40 --normalize-variance=true --normalize-mean=true "ark,s,cs:utils/subset_scp.pl --quiet 500000 expDNN/diag_ubm/vin_2k5_argumented_youtube_subset/feats.scp | apply-cmvn-online  expDNN/pca_transform/global_cmvn.stats scp:- ark:- | splice-feats --left-context=3 --right-context=3 ark:- ark:- | subsample-feats --n=2 ark:- ark:- |" expDNN/pca_transform/final.mat 
# Started at Mon May 18 08:23:02 UTC 2020
#
est-pca --dim=40 --normalize-variance=true --normalize-mean=true 'ark,s,cs:utils/subset_scp.pl --quiet 500000 expDNN/diag_ubm/vin_2k5_argumented_youtube_subset/feats.scp | apply-cmvn-online  expDNN/pca_transform/global_cmvn.stats scp:- ark:- | splice-feats --left-context=3 --right-context=3 ark:- ark:- | subsample-feats --n=2 ark:- ark:- |' expDNN/pca_transform/final.mat 
subsample-feats --n=2 ark:- ark:- 
splice-feats --left-context=3 --right-context=3 ark:- ark:- 
apply-cmvn-online expDNN/pca_transform/global_cmvn.stats scp:- ark:- 
LOG (apply-cmvn-online[5.5.630~2-4225a]:main():apply-cmvn-online.cc:133) Applied online CMVN to 62574 files, or 27643526 frames.
LOG (subsample-feats[5.5.630~2-4225a]:main():subsample-feats.cc:115) Processed 62574 feature matrices; 0 with errors.
LOG (subsample-feats[5.5.630~2-4225a]:main():subsample-feats.cc:117) Processed 27643526 input frames and 13837383 output frames.
LOG (est-pca[5.5.630~2-4225a]:main():est-pca.cc:105) Accumulated stats from 62574 feature files, 0 with errors; 13837383 frames.
LOG (est-pca[5.5.630~2-4225a]:main():est-pca.cc:155) Eigenvalues in PCA are  [ 5331.13 4863.69 3831.38 3233.87 2870.33 2769.16 2627.86 2333.16 2073.02 1871.63 1734.32 1683.41 1462.57 1239.65 1049.48 870.796 706.801 659.862 642.246 632.66 583.229 487.169 460.549 452.899 406.597 383.703 355.109 350.867 311.725 300.797 290.119 244.6 221.299 218.759 218.391 213.082 197.094 193.962 190.189 182.206 176.336 169.878 154.651 151.272 150.452 134.057 131.416 129.983 117.867 112.606 110.117 107.021 104.144 103.453 101.57 100.159 99.8339 96.1832 95.3017 89.9704 87.1459 85.9722 81.9334 80.0626 77.8914 76.9755 76.1594 74.1939 71.7069 70.8606 70.3782 68.623 67.6839 64.9444 64.5214 63.4429 63.0213 62.5344 59.7345 59.1212 59.0397 57.3946 56.8964 53.7404 52.883 51.1221 50.7858 48.0646 48.0018 47.9732 46.6792 45.7171 45.1219 44.5974 43.2812 42.7597 41.584 41.2376 40.9387 39.9946 39.8577 38.7872 37.5692 36.6746 36.2592 36.1538 35.7392 33.9151 33.625 33.2274 33.1219 32.2467 31.941 31.5729 31.2857 30.9307 30.8684 30.2758 29.8416 29.6839 28.6329 27.3662 26.9415 26.9138 26.836 26.6137 26.0309 25.8095 24.9611 24.893 24.2979 24.0275 22.8648 22.8311 22.7339 22.4633 22.3876 22.2007 21.9545 21.1708 21.0805 20.2598 20.213 19.3779 19.3134 18.5721 18.2893 18.1785 17.965 17.9503 17.8307 17.666 17.6151 17.1863 16.5375 15.6911 15.2545 14.9867 14.7758 14.6707 14.6502 14.3628 14.0914 13.4756 13.2807 13.1402 12.9383 12.6514 12.4572 12.3375 12.1318 11.6849 11.5302 11.1161 11.0449 10.943 10.8152 10.7472 10.6021 10.4412 10.398 10.3442 10.234 10.1192 9.89799 9.65256 9.63096 9.51456 9.4938 9.45976 9.35687 9.17502 9.01621 8.89374 8.69026 8.58014 8.45811 8.1113 7.90187 7.8488 7.73176 7.63341 7.62557 7.37059 7.32249 7.24136 7.00824 6.78636 6.76805 6.68422 6.55602 6.50452 6.48297 6.46559 6.20044 6.19317 5.94509 5.58651 5.57086 5.51574 5.41224 5.39896 5.35901 5.26506 5.16749 4.95243 4.73157 4.69374 4.6769 4.64467 4.45748 4.44752 4.39749 4.28387 4.18935 4.14884 3.86119 3.85401 3.79648 3.60827 3.56976 3.54567 3.45194 3.21295 3.19924 3.13734 2.92509 2.89511 2.83407 2.55294 2.49165 2.44903 2.37673 2.18919 2.07597 1.96221 1.70457 1.60865 1.5546 1.38209 1.3637 1.07314 1.05691 0.986482 0.985638 0.887098 0.765314 0.591953 0.501142 0.464904 0.285841 0.267026 0.202636 0.15652 0.13219 0.128399 0.0793495 0.0562573 0.043262 0.0364581 ]

LOG (est-pca[5.5.630~2-4225a]:main():est-pca.cc:156) Sum of PCA eigenvalues is 55804.2, sum of kept eigenvalues is 48749.4
# Accounting: time=67 threads=1
# Ended (code 0) at Mon May 18 08:24:09 UTC 2020, elapsed time 67 seconds
