# ivector-extractor-sum-accs --parallel=true "ivector-extractor-acc-stats --num-threads=4 expDNN/extractor/2.ie 'ark,s,cs:splice-feats --left-context=3 --right-context=3 scp:expDNN/diag_ubm/vin_2k5_argumented_youtube_subset/split200/77/feats.scp ark:- | transform-feats expDNN/extractor/final.mat ark:- ark:- | subsample-feats --n=2 ark:- ark:- |' 'ark,s,cs:gunzip -c expDNN/extractor/post.77.gz|' -|" "ivector-extractor-acc-stats --num-threads=4 expDNN/extractor/2.ie 'ark,s,cs:splice-feats --left-context=3 --right-context=3 scp:expDNN/diag_ubm/vin_2k5_argumented_youtube_subset/split200/78/feats.scp ark:- | transform-feats expDNN/extractor/final.mat ark:- ark:- | subsample-feats --n=2 ark:- ark:- |' 'ark,s,cs:gunzip -c expDNN/extractor/post.78.gz|' -|" "ivector-extractor-acc-stats --num-threads=4 expDNN/extractor/2.ie 'ark,s,cs:splice-feats --left-context=3 --right-context=3 scp:expDNN/diag_ubm/vin_2k5_argumented_youtube_subset/split200/79/feats.scp ark:- | transform-feats expDNN/extractor/final.mat ark:- ark:- | subsample-feats --n=2 ark:- ark:- |' 'ark,s,cs:gunzip -c expDNN/extractor/post.79.gz|' -|" "ivector-extractor-acc-stats --num-threads=4 expDNN/extractor/2.ie 'ark,s,cs:splice-feats --left-context=3 --right-context=3 scp:expDNN/diag_ubm/vin_2k5_argumented_youtube_subset/split200/80/feats.scp ark:- | transform-feats expDNN/extractor/final.mat ark:- ark:- | subsample-feats --n=2 ark:- ark:- |' 'ark,s,cs:gunzip -c expDNN/extractor/post.80.gz|' -|" expDNN/extractor/acc.2.20 
# Started at Mon May 18 08:31:43 UTC 2020
#
ivector-extractor-sum-accs --parallel=true "ivector-extractor-acc-stats --num-threads=4 expDNN/extractor/2.ie 'ark,s,cs:splice-feats --left-context=3 --right-context=3 scp:expDNN/diag_ubm/vin_2k5_argumented_youtube_subset/split200/77/feats.scp ark:- | transform-feats expDNN/extractor/final.mat ark:- ark:- | subsample-feats --n=2 ark:- ark:- |' 'ark,s,cs:gunzip -c expDNN/extractor/post.77.gz|' -|" "ivector-extractor-acc-stats --num-threads=4 expDNN/extractor/2.ie 'ark,s,cs:splice-feats --left-context=3 --right-context=3 scp:expDNN/diag_ubm/vin_2k5_argumented_youtube_subset/split200/78/feats.scp ark:- | transform-feats expDNN/extractor/final.mat ark:- ark:- | subsample-feats --n=2 ark:- ark:- |' 'ark,s,cs:gunzip -c expDNN/extractor/post.78.gz|' -|" "ivector-extractor-acc-stats --num-threads=4 expDNN/extractor/2.ie 'ark,s,cs:splice-feats --left-context=3 --right-context=3 scp:expDNN/diag_ubm/vin_2k5_argumented_youtube_subset/split200/79/feats.scp ark:- | transform-feats expDNN/extractor/final.mat ark:- ark:- | subsample-feats --n=2 ark:- ark:- |' 'ark,s,cs:gunzip -c expDNN/extractor/post.79.gz|' -|" "ivector-extractor-acc-stats --num-threads=4 expDNN/extractor/2.ie 'ark,s,cs:splice-feats --left-context=3 --right-context=3 scp:expDNN/diag_ubm/vin_2k5_argumented_youtube_subset/split200/80/feats.scp ark:- | transform-feats expDNN/extractor/final.mat ark:- ark:- | subsample-feats --n=2 ark:- ark:- |' 'ark,s,cs:gunzip -c expDNN/extractor/post.80.gz|' -|" expDNN/extractor/acc.2.20 
ivector-extractor-acc-stats --num-threads=4 expDNN/extractor/2.ie 'ark,s,cs:splice-feats --left-context=3 --right-context=3 scp:expDNN/diag_ubm/vin_2k5_argumented_youtube_subset/split200/80/feats.scp ark:- | transform-feats expDNN/extractor/final.mat ark:- ark:- | subsample-feats --n=2 ark:- ark:- |' 'ark,s,cs:gunzip -c expDNN/extractor/post.80.gz|' - 
ivector-extractor-acc-stats --num-threads=4 expDNN/extractor/2.ie 'ark,s,cs:splice-feats --left-context=3 --right-context=3 scp:expDNN/diag_ubm/vin_2k5_argumented_youtube_subset/split200/79/feats.scp ark:- | transform-feats expDNN/extractor/final.mat ark:- ark:- | subsample-feats --n=2 ark:- ark:- |' 'ark,s,cs:gunzip -c expDNN/extractor/post.79.gz|' - 
ivector-extractor-acc-stats --num-threads=4 expDNN/extractor/2.ie 'ark,s,cs:splice-feats --left-context=3 --right-context=3 scp:expDNN/diag_ubm/vin_2k5_argumented_youtube_subset/split200/78/feats.scp ark:- | transform-feats expDNN/extractor/final.mat ark:- ark:- | subsample-feats --n=2 ark:- ark:- |' 'ark,s,cs:gunzip -c expDNN/extractor/post.78.gz|' - 
ivector-extractor-acc-stats --num-threads=4 expDNN/extractor/2.ie 'ark,s,cs:splice-feats --left-context=3 --right-context=3 scp:expDNN/diag_ubm/vin_2k5_argumented_youtube_subset/split200/77/feats.scp ark:- | transform-feats expDNN/extractor/final.mat ark:- ark:- | subsample-feats --n=2 ark:- ark:- |' 'ark,s,cs:gunzip -c expDNN/extractor/post.77.gz|' - 
subsample-feats --n=2 ark:- ark:- 
transform-feats expDNN/extractor/final.mat ark:- ark:- 
subsample-feats --n=2 ark:- ark:- 
subsample-feats --n=2 ark:- ark:- 
transform-feats expDNN/extractor/final.mat ark:- ark:- 
transform-feats expDNN/extractor/final.mat ark:- ark:- 
splice-feats --left-context=3 --right-context=3 scp:expDNN/diag_ubm/vin_2k5_argumented_youtube_subset/split200/78/feats.scp ark:- 
transform-feats expDNN/extractor/final.mat ark:- ark:- 
splice-feats --left-context=3 --right-context=3 scp:expDNN/diag_ubm/vin_2k5_argumented_youtube_subset/split200/80/feats.scp ark:- 
splice-feats --left-context=3 --right-context=3 scp:expDNN/diag_ubm/vin_2k5_argumented_youtube_subset/split200/79/feats.scp ark:- 
LOG (ivector-extractor-acc-stats[5.5.630~2-4225a]:ComputeDerivedVars():ivector-extractor.cc:183) Computing derived variables for iVector extractor
subsample-feats --n=2 ark:- ark:- 
splice-feats --left-context=3 --right-context=3 scp:expDNN/diag_ubm/vin_2k5_argumented_youtube_subset/split200/77/feats.scp ark:- 
LOG (ivector-extractor-acc-stats[5.5.630~2-4225a]:ComputeDerivedVars():ivector-extractor.cc:183) Computing derived variables for iVector extractor
LOG (ivector-extractor-acc-stats[5.5.630~2-4225a]:ComputeDerivedVars():ivector-extractor.cc:183) Computing derived variables for iVector extractor
LOG (ivector-extractor-acc-stats[5.5.630~2-4225a]:ComputeDerivedVars():ivector-extractor.cc:183) Computing derived variables for iVector extractor
LOG (ivector-extractor-acc-stats[5.5.630~2-4225a]:ComputeDerivedVars():ivector-extractor.cc:204) Done.
LOG (ivector-extractor-acc-stats[5.5.630~2-4225a]:ComputeDerivedVars():ivector-extractor.cc:204) Done.
LOG (ivector-extractor-acc-stats[5.5.630~2-4225a]:ComputeDerivedVars():ivector-extractor.cc:204) Done.
LOG (ivector-extractor-acc-stats[5.5.630~2-4225a]:ComputeDerivedVars():ivector-extractor.cc:204) Done.
LOG (transform-feats[5.5.630~2-4225a]:main():transform-feats.cc:158) Overall average [pseudo-]logdet is -131.368 over 102932 frames.
LOG (transform-feats[5.5.630~2-4225a]:main():transform-feats.cc:161) Applied transform to 260 utterances; 0 had errors.
LOG (subsample-feats[5.5.630~2-4225a]:main():subsample-feats.cc:115) Processed 260 feature matrices; 0 with errors.
LOG (subsample-feats[5.5.630~2-4225a]:main():subsample-feats.cc:117) Processed 102932 input frames and 51532 output frames.
LOG (ivector-extractor-acc-stats[5.5.630~2-4225a]:main():ivector-extractor-acc-stats.cc:151) Done 260 files, 0 with errors.  Total frames 51532
LOG (transform-feats[5.5.630~2-4225a]:main():transform-feats.cc:158) Overall average [pseudo-]logdet is -131.368 over 115702 frames.
LOG (transform-feats[5.5.630~2-4225a]:main():transform-feats.cc:161) Applied transform to 261 utterances; 0 had errors.
LOG (subsample-feats[5.5.630~2-4225a]:main():subsample-feats.cc:115) Processed 261 feature matrices; 0 with errors.
LOG (subsample-feats[5.5.630~2-4225a]:main():subsample-feats.cc:117) Processed 115702 input frames and 57915 output frames.
LOG (transform-feats[5.5.630~2-4225a]:main():transform-feats.cc:158) Overall average [pseudo-]logdet is -131.368 over 102467 frames.
LOG (transform-feats[5.5.630~2-4225a]:main():transform-feats.cc:161) Applied transform to 259 utterances; 0 had errors.
LOG (ivector-extractor-acc-stats[5.5.630~2-4225a]:main():ivector-extractor-acc-stats.cc:151) Done 261 files, 0 with errors.  Total frames 57915
LOG (subsample-feats[5.5.630~2-4225a]:main():subsample-feats.cc:115) Processed 259 feature matrices; 0 with errors.
LOG (subsample-feats[5.5.630~2-4225a]:main():subsample-feats.cc:117) Processed 102467 input frames and 51297 output frames.
LOG (transform-feats[5.5.630~2-4225a]:main():transform-feats.cc:158) Overall average [pseudo-]logdet is -131.368 over 101643 frames.
LOG (transform-feats[5.5.630~2-4225a]:main():transform-feats.cc:161) Applied transform to 258 utterances; 0 had errors.
LOG (subsample-feats[5.5.630~2-4225a]:main():subsample-feats.cc:115) Processed 258 feature matrices; 0 with errors.
LOG (subsample-feats[5.5.630~2-4225a]:main():subsample-feats.cc:117) Processed 101643 input frames and 50890 output frames.
LOG (ivector-extractor-acc-stats[5.5.630~2-4225a]:main():ivector-extractor-acc-stats.cc:151) Done 259 files, 0 with errors.  Total frames 51297
LOG (ivector-extractor-acc-stats[5.5.630~2-4225a]:main():ivector-extractor-acc-stats.cc:151) Done 258 files, 0 with errors.  Total frames 50890
LOG (ivector-extractor-acc-stats[5.5.630~2-4225a]:main():ivector-extractor-acc-stats.cc:159) Wrote stats to -
LOG (ivector-extractor-acc-stats[5.5.630~2-4225a]:main():ivector-extractor-acc-stats.cc:159) Wrote stats to -
LOG (ivector-extractor-acc-stats[5.5.630~2-4225a]:main():ivector-extractor-acc-stats.cc:159) Wrote stats to -
LOG (ivector-extractor-acc-stats[5.5.630~2-4225a]:main():ivector-extractor-acc-stats.cc:159) Wrote stats to -
LOG (ivector-extractor-sum-accs[5.5.630~2-4225a]:main():ivector-extractor-sum-accs.cc:83) Wrote summed stats to expDNN/extractor/acc.2.20
# Accounting: time=108 threads=1
# Ended (code 0) at Mon May 18 08:33:32 UTC 2020, elapsed time 108 seconds
