# ivector-extractor-sum-accs --parallel=true "ivector-extractor-acc-stats --num-threads=4 expDNN/extractor/4.ie 'ark,s,cs:splice-feats --left-context=3 --right-context=3 scp:expDNN/diag_ubm/vin_2k5_argumented_youtube_subset/split200/49/feats.scp ark:- | transform-feats expDNN/extractor/final.mat ark:- ark:- | subsample-feats --n=2 ark:- ark:- |' 'ark,s,cs:gunzip -c expDNN/extractor/post.49.gz|' -|" "ivector-extractor-acc-stats --num-threads=4 expDNN/extractor/4.ie 'ark,s,cs:splice-feats --left-context=3 --right-context=3 scp:expDNN/diag_ubm/vin_2k5_argumented_youtube_subset/split200/50/feats.scp ark:- | transform-feats expDNN/extractor/final.mat ark:- ark:- | subsample-feats --n=2 ark:- ark:- |' 'ark,s,cs:gunzip -c expDNN/extractor/post.50.gz|' -|" "ivector-extractor-acc-stats --num-threads=4 expDNN/extractor/4.ie 'ark,s,cs:splice-feats --left-context=3 --right-context=3 scp:expDNN/diag_ubm/vin_2k5_argumented_youtube_subset/split200/51/feats.scp ark:- | transform-feats expDNN/extractor/final.mat ark:- ark:- | subsample-feats --n=2 ark:- ark:- |' 'ark,s,cs:gunzip -c expDNN/extractor/post.51.gz|' -|" "ivector-extractor-acc-stats --num-threads=4 expDNN/extractor/4.ie 'ark,s,cs:splice-feats --left-context=3 --right-context=3 scp:expDNN/diag_ubm/vin_2k5_argumented_youtube_subset/split200/52/feats.scp ark:- | transform-feats expDNN/extractor/final.mat ark:- ark:- | subsample-feats --n=2 ark:- ark:- |' 'ark,s,cs:gunzip -c expDNN/extractor/post.52.gz|' -|" expDNN/extractor/acc.4.13 
# Started at Mon May 18 08:36:38 UTC 2020
#
ivector-extractor-sum-accs --parallel=true "ivector-extractor-acc-stats --num-threads=4 expDNN/extractor/4.ie 'ark,s,cs:splice-feats --left-context=3 --right-context=3 scp:expDNN/diag_ubm/vin_2k5_argumented_youtube_subset/split200/49/feats.scp ark:- | transform-feats expDNN/extractor/final.mat ark:- ark:- | subsample-feats --n=2 ark:- ark:- |' 'ark,s,cs:gunzip -c expDNN/extractor/post.49.gz|' -|" "ivector-extractor-acc-stats --num-threads=4 expDNN/extractor/4.ie 'ark,s,cs:splice-feats --left-context=3 --right-context=3 scp:expDNN/diag_ubm/vin_2k5_argumented_youtube_subset/split200/50/feats.scp ark:- | transform-feats expDNN/extractor/final.mat ark:- ark:- | subsample-feats --n=2 ark:- ark:- |' 'ark,s,cs:gunzip -c expDNN/extractor/post.50.gz|' -|" "ivector-extractor-acc-stats --num-threads=4 expDNN/extractor/4.ie 'ark,s,cs:splice-feats --left-context=3 --right-context=3 scp:expDNN/diag_ubm/vin_2k5_argumented_youtube_subset/split200/51/feats.scp ark:- | transform-feats expDNN/extractor/final.mat ark:- ark:- | subsample-feats --n=2 ark:- ark:- |' 'ark,s,cs:gunzip -c expDNN/extractor/post.51.gz|' -|" "ivector-extractor-acc-stats --num-threads=4 expDNN/extractor/4.ie 'ark,s,cs:splice-feats --left-context=3 --right-context=3 scp:expDNN/diag_ubm/vin_2k5_argumented_youtube_subset/split200/52/feats.scp ark:- | transform-feats expDNN/extractor/final.mat ark:- ark:- | subsample-feats --n=2 ark:- ark:- |' 'ark,s,cs:gunzip -c expDNN/extractor/post.52.gz|' -|" expDNN/extractor/acc.4.13 
ivector-extractor-acc-stats --num-threads=4 expDNN/extractor/4.ie 'ark,s,cs:splice-feats --left-context=3 --right-context=3 scp:expDNN/diag_ubm/vin_2k5_argumented_youtube_subset/split200/52/feats.scp ark:- | transform-feats expDNN/extractor/final.mat ark:- ark:- | subsample-feats --n=2 ark:- ark:- |' 'ark,s,cs:gunzip -c expDNN/extractor/post.52.gz|' - 
ivector-extractor-acc-stats --num-threads=4 expDNN/extractor/4.ie 'ark,s,cs:splice-feats --left-context=3 --right-context=3 scp:expDNN/diag_ubm/vin_2k5_argumented_youtube_subset/split200/50/feats.scp ark:- | transform-feats expDNN/extractor/final.mat ark:- ark:- | subsample-feats --n=2 ark:- ark:- |' 'ark,s,cs:gunzip -c expDNN/extractor/post.50.gz|' - 
ivector-extractor-acc-stats --num-threads=4 expDNN/extractor/4.ie 'ark,s,cs:splice-feats --left-context=3 --right-context=3 scp:expDNN/diag_ubm/vin_2k5_argumented_youtube_subset/split200/49/feats.scp ark:- | transform-feats expDNN/extractor/final.mat ark:- ark:- | subsample-feats --n=2 ark:- ark:- |' 'ark,s,cs:gunzip -c expDNN/extractor/post.49.gz|' - 
ivector-extractor-acc-stats --num-threads=4 expDNN/extractor/4.ie 'ark,s,cs:splice-feats --left-context=3 --right-context=3 scp:expDNN/diag_ubm/vin_2k5_argumented_youtube_subset/split200/51/feats.scp ark:- | transform-feats expDNN/extractor/final.mat ark:- ark:- | subsample-feats --n=2 ark:- ark:- |' 'ark,s,cs:gunzip -c expDNN/extractor/post.51.gz|' - 
subsample-feats --n=2 ark:- ark:- 
transform-feats expDNN/extractor/final.mat ark:- ark:- 
transform-feats expDNN/extractor/final.mat ark:- ark:- 
subsample-feats --n=2 ark:- ark:- 
splice-feats --left-context=3 --right-context=3 scp:expDNN/diag_ubm/vin_2k5_argumented_youtube_subset/split200/52/feats.scp ark:- 
splice-feats --left-context=3 --right-context=3 scp:expDNN/diag_ubm/vin_2k5_argumented_youtube_subset/split200/51/feats.scp ark:- 
splice-feats --left-context=3 --right-context=3 scp:expDNN/diag_ubm/vin_2k5_argumented_youtube_subset/split200/50/feats.scp ark:- 
splice-feats --left-context=3 --right-context=3 scp:expDNN/diag_ubm/vin_2k5_argumented_youtube_subset/split200/49/feats.scp ark:- 
transform-feats expDNN/extractor/final.mat ark:- ark:- 
subsample-feats --n=2 ark:- ark:- 
LOG (ivector-extractor-acc-stats[5.5.630~2-4225a]:ComputeDerivedVars():ivector-extractor.cc:183) Computing derived variables for iVector extractor
subsample-feats --n=2 ark:- ark:- 
transform-feats expDNN/extractor/final.mat ark:- ark:- 
LOG (ivector-extractor-acc-stats[5.5.630~2-4225a]:ComputeDerivedVars():ivector-extractor.cc:183) Computing derived variables for iVector extractor
LOG (ivector-extractor-acc-stats[5.5.630~2-4225a]:ComputeDerivedVars():ivector-extractor.cc:183) Computing derived variables for iVector extractor
LOG (ivector-extractor-acc-stats[5.5.630~2-4225a]:ComputeDerivedVars():ivector-extractor.cc:183) Computing derived variables for iVector extractor
LOG (ivector-extractor-acc-stats[5.5.630~2-4225a]:ComputeDerivedVars():ivector-extractor.cc:204) Done.
LOG (ivector-extractor-acc-stats[5.5.630~2-4225a]:ComputeDerivedVars():ivector-extractor.cc:204) Done.
LOG (ivector-extractor-acc-stats[5.5.630~2-4225a]:ComputeDerivedVars():ivector-extractor.cc:204) Done.
LOG (ivector-extractor-acc-stats[5.5.630~2-4225a]:ComputeDerivedVars():ivector-extractor.cc:204) Done.
LOG (transform-feats[5.5.630~2-4225a]:main():transform-feats.cc:158) Overall average [pseudo-]logdet is -131.368 over 136385 frames.
LOG (transform-feats[5.5.630~2-4225a]:main():transform-feats.cc:161) Applied transform to 229 utterances; 0 had errors.
LOG (subsample-feats[5.5.630~2-4225a]:main():subsample-feats.cc:115) Processed 229 feature matrices; 0 with errors.
LOG (subsample-feats[5.5.630~2-4225a]:main():subsample-feats.cc:117) Processed 136385 input frames and 68245 output frames.
LOG (ivector-extractor-acc-stats[5.5.630~2-4225a]:main():ivector-extractor-acc-stats.cc:151) Done 229 files, 0 with errors.  Total frames 68245
LOG (transform-feats[5.5.630~2-4225a]:main():transform-feats.cc:158) Overall average [pseudo-]logdet is -131.368 over 161706 frames.
LOG (transform-feats[5.5.630~2-4225a]:main():transform-feats.cc:161) Applied transform to 232 utterances; 0 had errors.
LOG (transform-feats[5.5.630~2-4225a]:main():transform-feats.cc:158) Overall average [pseudo-]logdet is -131.368 over 118988 frames.
LOG (transform-feats[5.5.630~2-4225a]:main():transform-feats.cc:161) Applied transform to 231 utterances; 0 had errors.
LOG (subsample-feats[5.5.630~2-4225a]:main():subsample-feats.cc:115) Processed 232 feature matrices; 0 with errors.
LOG (subsample-feats[5.5.630~2-4225a]:main():subsample-feats.cc:117) Processed 161706 input frames and 80915 output frames.
LOG (subsample-feats[5.5.630~2-4225a]:main():subsample-feats.cc:115) Processed 231 feature matrices; 0 with errors.
LOG (subsample-feats[5.5.630~2-4225a]:main():subsample-feats.cc:117) Processed 118988 input frames and 59551 output frames.
LOG (ivector-extractor-acc-stats[5.5.630~2-4225a]:main():ivector-extractor-acc-stats.cc:151) Done 231 files, 0 with errors.  Total frames 59551
LOG (transform-feats[5.5.630~2-4225a]:main():transform-feats.cc:158) Overall average [pseudo-]logdet is -131.368 over 179301 frames.
LOG (transform-feats[5.5.630~2-4225a]:main():transform-feats.cc:161) Applied transform to 230 utterances; 0 had errors.
LOG (ivector-extractor-acc-stats[5.5.630~2-4225a]:main():ivector-extractor-acc-stats.cc:151) Done 232 files, 0 with errors.  Total frames 80915
LOG (subsample-feats[5.5.630~2-4225a]:main():subsample-feats.cc:115) Processed 230 feature matrices; 0 with errors.
LOG (subsample-feats[5.5.630~2-4225a]:main():subsample-feats.cc:117) Processed 179301 input frames and 89707 output frames.
LOG (ivector-extractor-acc-stats[5.5.630~2-4225a]:main():ivector-extractor-acc-stats.cc:159) Wrote stats to -
LOG (ivector-extractor-acc-stats[5.5.630~2-4225a]:main():ivector-extractor-acc-stats.cc:151) Done 230 files, 0 with errors.  Total frames 89707
LOG (ivector-extractor-acc-stats[5.5.630~2-4225a]:main():ivector-extractor-acc-stats.cc:159) Wrote stats to -
LOG (ivector-extractor-acc-stats[5.5.630~2-4225a]:main():ivector-extractor-acc-stats.cc:159) Wrote stats to -
LOG (ivector-extractor-acc-stats[5.5.630~2-4225a]:main():ivector-extractor-acc-stats.cc:159) Wrote stats to -
LOG (ivector-extractor-sum-accs[5.5.630~2-4225a]:main():ivector-extractor-sum-accs.cc:83) Wrote summed stats to expDNN/extractor/acc.4.13
# Accounting: time=100 threads=1
# Ended (code 0) at Mon May 18 08:38:18 UTC 2020, elapsed time 100 seconds
