# ivector-extractor-sum-accs --parallel=true "ivector-extractor-acc-stats --num-threads=4 expDNN/extractor/5.ie 'ark,s,cs:splice-feats --left-context=3 --right-context=3 scp:expDNN/diag_ubm/vin_2k5_argumented_youtube_subset/split200/97/feats.scp ark:- | transform-feats expDNN/extractor/final.mat ark:- ark:- | subsample-feats --n=2 ark:- ark:- |' 'ark,s,cs:gunzip -c expDNN/extractor/post.97.gz|' -|" "ivector-extractor-acc-stats --num-threads=4 expDNN/extractor/5.ie 'ark,s,cs:splice-feats --left-context=3 --right-context=3 scp:expDNN/diag_ubm/vin_2k5_argumented_youtube_subset/split200/98/feats.scp ark:- | transform-feats expDNN/extractor/final.mat ark:- ark:- | subsample-feats --n=2 ark:- ark:- |' 'ark,s,cs:gunzip -c expDNN/extractor/post.98.gz|' -|" "ivector-extractor-acc-stats --num-threads=4 expDNN/extractor/5.ie 'ark,s,cs:splice-feats --left-context=3 --right-context=3 scp:expDNN/diag_ubm/vin_2k5_argumented_youtube_subset/split200/99/feats.scp ark:- | transform-feats expDNN/extractor/final.mat ark:- ark:- | subsample-feats --n=2 ark:- ark:- |' 'ark,s,cs:gunzip -c expDNN/extractor/post.99.gz|' -|" "ivector-extractor-acc-stats --num-threads=4 expDNN/extractor/5.ie 'ark,s,cs:splice-feats --left-context=3 --right-context=3 scp:expDNN/diag_ubm/vin_2k5_argumented_youtube_subset/split200/100/feats.scp ark:- | transform-feats expDNN/extractor/final.mat ark:- ark:- | subsample-feats --n=2 ark:- ark:- |' 'ark,s,cs:gunzip -c expDNN/extractor/post.100.gz|' -|" expDNN/extractor/acc.5.25 
# Started at Mon May 18 08:38:49 UTC 2020
#
ivector-extractor-sum-accs --parallel=true "ivector-extractor-acc-stats --num-threads=4 expDNN/extractor/5.ie 'ark,s,cs:splice-feats --left-context=3 --right-context=3 scp:expDNN/diag_ubm/vin_2k5_argumented_youtube_subset/split200/97/feats.scp ark:- | transform-feats expDNN/extractor/final.mat ark:- ark:- | subsample-feats --n=2 ark:- ark:- |' 'ark,s,cs:gunzip -c expDNN/extractor/post.97.gz|' -|" "ivector-extractor-acc-stats --num-threads=4 expDNN/extractor/5.ie 'ark,s,cs:splice-feats --left-context=3 --right-context=3 scp:expDNN/diag_ubm/vin_2k5_argumented_youtube_subset/split200/98/feats.scp ark:- | transform-feats expDNN/extractor/final.mat ark:- ark:- | subsample-feats --n=2 ark:- ark:- |' 'ark,s,cs:gunzip -c expDNN/extractor/post.98.gz|' -|" "ivector-extractor-acc-stats --num-threads=4 expDNN/extractor/5.ie 'ark,s,cs:splice-feats --left-context=3 --right-context=3 scp:expDNN/diag_ubm/vin_2k5_argumented_youtube_subset/split200/99/feats.scp ark:- | transform-feats expDNN/extractor/final.mat ark:- ark:- | subsample-feats --n=2 ark:- ark:- |' 'ark,s,cs:gunzip -c expDNN/extractor/post.99.gz|' -|" "ivector-extractor-acc-stats --num-threads=4 expDNN/extractor/5.ie 'ark,s,cs:splice-feats --left-context=3 --right-context=3 scp:expDNN/diag_ubm/vin_2k5_argumented_youtube_subset/split200/100/feats.scp ark:- | transform-feats expDNN/extractor/final.mat ark:- ark:- | subsample-feats --n=2 ark:- ark:- |' 'ark,s,cs:gunzip -c expDNN/extractor/post.100.gz|' -|" expDNN/extractor/acc.5.25 
ivector-extractor-acc-stats --num-threads=4 expDNN/extractor/5.ie 'ark,s,cs:splice-feats --left-context=3 --right-context=3 scp:expDNN/diag_ubm/vin_2k5_argumented_youtube_subset/split200/99/feats.scp ark:- | transform-feats expDNN/extractor/final.mat ark:- ark:- | subsample-feats --n=2 ark:- ark:- |' 'ark,s,cs:gunzip -c expDNN/extractor/post.99.gz|' - 
ivector-extractor-acc-stats --num-threads=4 expDNN/extractor/5.ie 'ark,s,cs:splice-feats --left-context=3 --right-context=3 scp:expDNN/diag_ubm/vin_2k5_argumented_youtube_subset/split200/97/feats.scp ark:- | transform-feats expDNN/extractor/final.mat ark:- ark:- | subsample-feats --n=2 ark:- ark:- |' 'ark,s,cs:gunzip -c expDNN/extractor/post.97.gz|' - 
subsample-feats --n=2 ark:- ark:- 
ivector-extractor-acc-stats --num-threads=4 expDNN/extractor/5.ie 'ark,s,cs:splice-feats --left-context=3 --right-context=3 scp:expDNN/diag_ubm/vin_2k5_argumented_youtube_subset/split200/100/feats.scp ark:- | transform-feats expDNN/extractor/final.mat ark:- ark:- | subsample-feats --n=2 ark:- ark:- |' 'ark,s,cs:gunzip -c expDNN/extractor/post.100.gz|' - 
transform-feats expDNN/extractor/final.mat ark:- ark:- 
splice-feats --left-context=3 --right-context=3 scp:expDNN/diag_ubm/vin_2k5_argumented_youtube_subset/split200/99/feats.scp ark:- 
ivector-extractor-acc-stats --num-threads=4 expDNN/extractor/5.ie 'ark,s,cs:splice-feats --left-context=3 --right-context=3 scp:expDNN/diag_ubm/vin_2k5_argumented_youtube_subset/split200/98/feats.scp ark:- | transform-feats expDNN/extractor/final.mat ark:- ark:- | subsample-feats --n=2 ark:- ark:- |' 'ark,s,cs:gunzip -c expDNN/extractor/post.98.gz|' - 
splice-feats --left-context=3 --right-context=3 scp:expDNN/diag_ubm/vin_2k5_argumented_youtube_subset/split200/97/feats.scp ark:- 
transform-feats expDNN/extractor/final.mat ark:- ark:- 
subsample-feats --n=2 ark:- ark:- 
LOG (ivector-extractor-acc-stats[5.5.630~2-4225a]:ComputeDerivedVars():ivector-extractor.cc:183) Computing derived variables for iVector extractor
transform-feats expDNN/extractor/final.mat ark:- ark:- 
subsample-feats --n=2 ark:- ark:- 
splice-feats --left-context=3 --right-context=3 scp:expDNN/diag_ubm/vin_2k5_argumented_youtube_subset/split200/98/feats.scp ark:- 
splice-feats --left-context=3 --right-context=3 scp:expDNN/diag_ubm/vin_2k5_argumented_youtube_subset/split200/100/feats.scp ark:- 
transform-feats expDNN/extractor/final.mat ark:- ark:- 
subsample-feats --n=2 ark:- ark:- 
LOG (ivector-extractor-acc-stats[5.5.630~2-4225a]:ComputeDerivedVars():ivector-extractor.cc:183) Computing derived variables for iVector extractor
LOG (ivector-extractor-acc-stats[5.5.630~2-4225a]:ComputeDerivedVars():ivector-extractor.cc:183) Computing derived variables for iVector extractor
LOG (ivector-extractor-acc-stats[5.5.630~2-4225a]:ComputeDerivedVars():ivector-extractor.cc:183) Computing derived variables for iVector extractor
LOG (ivector-extractor-acc-stats[5.5.630~2-4225a]:ComputeDerivedVars():ivector-extractor.cc:204) Done.
LOG (ivector-extractor-acc-stats[5.5.630~2-4225a]:ComputeDerivedVars():ivector-extractor.cc:204) Done.
LOG (ivector-extractor-acc-stats[5.5.630~2-4225a]:ComputeDerivedVars():ivector-extractor.cc:204) Done.
LOG (ivector-extractor-acc-stats[5.5.630~2-4225a]:ComputeDerivedVars():ivector-extractor.cc:204) Done.
LOG (transform-feats[5.5.630~2-4225a]:main():transform-feats.cc:158) Overall average [pseudo-]logdet is -131.368 over 117306 frames.
LOG (transform-feats[5.5.630~2-4225a]:main():transform-feats.cc:161) Applied transform to 284 utterances; 0 had errors.
LOG (subsample-feats[5.5.630~2-4225a]:main():subsample-feats.cc:115) Processed 284 feature matrices; 0 with errors.
LOG (subsample-feats[5.5.630~2-4225a]:main():subsample-feats.cc:117) Processed 117306 input frames and 58725 output frames.
LOG (ivector-extractor-acc-stats[5.5.630~2-4225a]:main():ivector-extractor-acc-stats.cc:151) Done 284 files, 0 with errors.  Total frames 58725
LOG (transform-feats[5.5.630~2-4225a]:main():transform-feats.cc:158) Overall average [pseudo-]logdet is -131.368 over 110614 frames.
LOG (transform-feats[5.5.630~2-4225a]:main():transform-feats.cc:161) Applied transform to 286 utterances; 0 had errors.
LOG (subsample-feats[5.5.630~2-4225a]:main():subsample-feats.cc:115) Processed 286 feature matrices; 0 with errors.
LOG (subsample-feats[5.5.630~2-4225a]:main():subsample-feats.cc:117) Processed 110614 input frames and 55382 output frames.
LOG (transform-feats[5.5.630~2-4225a]:main():transform-feats.cc:158) Overall average [pseudo-]logdet is -131.368 over 113188 frames.
LOG (transform-feats[5.5.630~2-4225a]:main():transform-feats.cc:161) Applied transform to 283 utterances; 0 had errors.
LOG (subsample-feats[5.5.630~2-4225a]:main():subsample-feats.cc:115) Processed 283 feature matrices; 0 with errors.
LOG (subsample-feats[5.5.630~2-4225a]:main():subsample-feats.cc:117) Processed 113188 input frames and 56672 output frames.
LOG (ivector-extractor-acc-stats[5.5.630~2-4225a]:main():ivector-extractor-acc-stats.cc:151) Done 286 files, 0 with errors.  Total frames 55382
LOG (ivector-extractor-acc-stats[5.5.630~2-4225a]:main():ivector-extractor-acc-stats.cc:151) Done 283 files, 0 with errors.  Total frames 56672
LOG (ivector-extractor-acc-stats[5.5.630~2-4225a]:main():ivector-extractor-acc-stats.cc:159) Wrote stats to -
LOG (transform-feats[5.5.630~2-4225a]:main():transform-feats.cc:158) Overall average [pseudo-]logdet is -131.368 over 107931 frames.
LOG (transform-feats[5.5.630~2-4225a]:main():transform-feats.cc:161) Applied transform to 285 utterances; 0 had errors.
LOG (ivector-extractor-acc-stats[5.5.630~2-4225a]:main():ivector-extractor-acc-stats.cc:159) Wrote stats to -
LOG (subsample-feats[5.5.630~2-4225a]:main():subsample-feats.cc:115) Processed 285 feature matrices; 0 with errors.
LOG (subsample-feats[5.5.630~2-4225a]:main():subsample-feats.cc:117) Processed 107931 input frames and 54034 output frames.
LOG (ivector-extractor-acc-stats[5.5.630~2-4225a]:main():ivector-extractor-acc-stats.cc:151) Done 285 files, 0 with errors.  Total frames 54034
LOG (ivector-extractor-acc-stats[5.5.630~2-4225a]:main():ivector-extractor-acc-stats.cc:159) Wrote stats to -
LOG (ivector-extractor-acc-stats[5.5.630~2-4225a]:main():ivector-extractor-acc-stats.cc:159) Wrote stats to -
LOG (ivector-extractor-sum-accs[5.5.630~2-4225a]:main():ivector-extractor-sum-accs.cc:83) Wrote summed stats to expDNN/extractor/acc.5.25
# Accounting: time=111 threads=1
# Ended (code 0) at Mon May 18 08:40:40 UTC 2020, elapsed time 111 seconds
