# ivector-extractor-sum-accs --parallel=true "ivector-extractor-acc-stats --num-threads=4 expDNN/extractor/9.ie 'ark,s,cs:splice-feats --left-context=3 --right-context=3 scp:expDNN/diag_ubm/vin_2k5_argumented_youtube_subset/split200/129/feats.scp ark:- | transform-feats expDNN/extractor/final.mat ark:- ark:- | subsample-feats --n=2 ark:- ark:- |' 'ark,s,cs:gunzip -c expDNN/extractor/post.129.gz|' -|" "ivector-extractor-acc-stats --num-threads=4 expDNN/extractor/9.ie 'ark,s,cs:splice-feats --left-context=3 --right-context=3 scp:expDNN/diag_ubm/vin_2k5_argumented_youtube_subset/split200/130/feats.scp ark:- | transform-feats expDNN/extractor/final.mat ark:- ark:- | subsample-feats --n=2 ark:- ark:- |' 'ark,s,cs:gunzip -c expDNN/extractor/post.130.gz|' -|" "ivector-extractor-acc-stats --num-threads=4 expDNN/extractor/9.ie 'ark,s,cs:splice-feats --left-context=3 --right-context=3 scp:expDNN/diag_ubm/vin_2k5_argumented_youtube_subset/split200/131/feats.scp ark:- | transform-feats expDNN/extractor/final.mat ark:- ark:- | subsample-feats --n=2 ark:- ark:- |' 'ark,s,cs:gunzip -c expDNN/extractor/post.131.gz|' -|" "ivector-extractor-acc-stats --num-threads=4 expDNN/extractor/9.ie 'ark,s,cs:splice-feats --left-context=3 --right-context=3 scp:expDNN/diag_ubm/vin_2k5_argumented_youtube_subset/split200/132/feats.scp ark:- | transform-feats expDNN/extractor/final.mat ark:- ark:- | subsample-feats --n=2 ark:- ark:- |' 'ark,s,cs:gunzip -c expDNN/extractor/post.132.gz|' -|" expDNN/extractor/acc.9.33 
# Started at Mon May 18 08:48:00 UTC 2020
#
ivector-extractor-sum-accs --parallel=true "ivector-extractor-acc-stats --num-threads=4 expDNN/extractor/9.ie 'ark,s,cs:splice-feats --left-context=3 --right-context=3 scp:expDNN/diag_ubm/vin_2k5_argumented_youtube_subset/split200/129/feats.scp ark:- | transform-feats expDNN/extractor/final.mat ark:- ark:- | subsample-feats --n=2 ark:- ark:- |' 'ark,s,cs:gunzip -c expDNN/extractor/post.129.gz|' -|" "ivector-extractor-acc-stats --num-threads=4 expDNN/extractor/9.ie 'ark,s,cs:splice-feats --left-context=3 --right-context=3 scp:expDNN/diag_ubm/vin_2k5_argumented_youtube_subset/split200/130/feats.scp ark:- | transform-feats expDNN/extractor/final.mat ark:- ark:- | subsample-feats --n=2 ark:- ark:- |' 'ark,s,cs:gunzip -c expDNN/extractor/post.130.gz|' -|" "ivector-extractor-acc-stats --num-threads=4 expDNN/extractor/9.ie 'ark,s,cs:splice-feats --left-context=3 --right-context=3 scp:expDNN/diag_ubm/vin_2k5_argumented_youtube_subset/split200/131/feats.scp ark:- | transform-feats expDNN/extractor/final.mat ark:- ark:- | subsample-feats --n=2 ark:- ark:- |' 'ark,s,cs:gunzip -c expDNN/extractor/post.131.gz|' -|" "ivector-extractor-acc-stats --num-threads=4 expDNN/extractor/9.ie 'ark,s,cs:splice-feats --left-context=3 --right-context=3 scp:expDNN/diag_ubm/vin_2k5_argumented_youtube_subset/split200/132/feats.scp ark:- | transform-feats expDNN/extractor/final.mat ark:- ark:- | subsample-feats --n=2 ark:- ark:- |' 'ark,s,cs:gunzip -c expDNN/extractor/post.132.gz|' -|" expDNN/extractor/acc.9.33 
ivector-extractor-acc-stats --num-threads=4 expDNN/extractor/9.ie 'ark,s,cs:splice-feats --left-context=3 --right-context=3 scp:expDNN/diag_ubm/vin_2k5_argumented_youtube_subset/split200/132/feats.scp ark:- | transform-feats expDNN/extractor/final.mat ark:- ark:- | subsample-feats --n=2 ark:- ark:- |' 'ark,s,cs:gunzip -c expDNN/extractor/post.132.gz|' - 
ivector-extractor-acc-stats --num-threads=4 expDNN/extractor/9.ie 'ark,s,cs:splice-feats --left-context=3 --right-context=3 scp:expDNN/diag_ubm/vin_2k5_argumented_youtube_subset/split200/129/feats.scp ark:- | transform-feats expDNN/extractor/final.mat ark:- ark:- | subsample-feats --n=2 ark:- ark:- |' 'ark,s,cs:gunzip -c expDNN/extractor/post.129.gz|' - 
ivector-extractor-acc-stats --num-threads=4 expDNN/extractor/9.ie 'ark,s,cs:splice-feats --left-context=3 --right-context=3 scp:expDNN/diag_ubm/vin_2k5_argumented_youtube_subset/split200/131/feats.scp ark:- | transform-feats expDNN/extractor/final.mat ark:- ark:- | subsample-feats --n=2 ark:- ark:- |' 'ark,s,cs:gunzip -c expDNN/extractor/post.131.gz|' - 
ivector-extractor-acc-stats --num-threads=4 expDNN/extractor/9.ie 'ark,s,cs:splice-feats --left-context=3 --right-context=3 scp:expDNN/diag_ubm/vin_2k5_argumented_youtube_subset/split200/130/feats.scp ark:- | transform-feats expDNN/extractor/final.mat ark:- ark:- | subsample-feats --n=2 ark:- ark:- |' 'ark,s,cs:gunzip -c expDNN/extractor/post.130.gz|' - 
transform-feats expDNN/extractor/final.mat ark:- ark:- 
splice-feats --left-context=3 --right-context=3 scp:expDNN/diag_ubm/vin_2k5_argumented_youtube_subset/split200/129/feats.scp ark:- 
splice-feats --left-context=3 --right-context=3 scp:expDNN/diag_ubm/vin_2k5_argumented_youtube_subset/split200/132/feats.scp ark:- 
transform-feats expDNN/extractor/final.mat ark:- ark:- 
subsample-feats --n=2 ark:- ark:- 
transform-feats expDNN/extractor/final.mat ark:- ark:- 
splice-feats --left-context=3 --right-context=3 scp:expDNN/diag_ubm/vin_2k5_argumented_youtube_subset/split200/131/feats.scp ark:- 
subsample-feats --n=2 ark:- ark:- 
subsample-feats --n=2 ark:- ark:- 
splice-feats --left-context=3 --right-context=3 scp:expDNN/diag_ubm/vin_2k5_argumented_youtube_subset/split200/130/feats.scp ark:- 
LOG (ivector-extractor-acc-stats[5.5.630~2-4225a]:ComputeDerivedVars():ivector-extractor.cc:183) Computing derived variables for iVector extractor
subsample-feats --n=2 ark:- ark:- 
transform-feats expDNN/extractor/final.mat ark:- ark:- 
LOG (ivector-extractor-acc-stats[5.5.630~2-4225a]:ComputeDerivedVars():ivector-extractor.cc:183) Computing derived variables for iVector extractor
LOG (ivector-extractor-acc-stats[5.5.630~2-4225a]:ComputeDerivedVars():ivector-extractor.cc:183) Computing derived variables for iVector extractor
LOG (ivector-extractor-acc-stats[5.5.630~2-4225a]:ComputeDerivedVars():ivector-extractor.cc:183) Computing derived variables for iVector extractor
LOG (ivector-extractor-acc-stats[5.5.630~2-4225a]:ComputeDerivedVars():ivector-extractor.cc:204) Done.
LOG (ivector-extractor-acc-stats[5.5.630~2-4225a]:ComputeDerivedVars():ivector-extractor.cc:204) Done.
LOG (ivector-extractor-acc-stats[5.5.630~2-4225a]:ComputeDerivedVars():ivector-extractor.cc:204) Done.
LOG (ivector-extractor-acc-stats[5.5.630~2-4225a]:ComputeDerivedVars():ivector-extractor.cc:204) Done.
LOG (transform-feats[5.5.630~2-4225a]:main():transform-feats.cc:158) Overall average [pseudo-]logdet is -131.368 over 158072 frames.
LOG (transform-feats[5.5.630~2-4225a]:main():transform-feats.cc:161) Applied transform to 341 utterances; 0 had errors.
LOG (subsample-feats[5.5.630~2-4225a]:main():subsample-feats.cc:115) Processed 341 feature matrices; 0 with errors.
LOG (subsample-feats[5.5.630~2-4225a]:main():subsample-feats.cc:117) Processed 158072 input frames and 79117 output frames.
LOG (ivector-extractor-acc-stats[5.5.630~2-4225a]:main():ivector-extractor-acc-stats.cc:151) Done 341 files, 0 with errors.  Total frames 79117
LOG (ivector-extractor-acc-stats[5.5.630~2-4225a]:main():ivector-extractor-acc-stats.cc:159) Wrote stats to -
LOG (transform-feats[5.5.630~2-4225a]:main():transform-feats.cc:158) Overall average [pseudo-]logdet is -131.368 over 165241 frames.
LOG (transform-feats[5.5.630~2-4225a]:main():transform-feats.cc:161) Applied transform to 341 utterances; 0 had errors.
LOG (transform-feats[5.5.630~2-4225a]:main():transform-feats.cc:158) Overall average [pseudo-]logdet is -131.368 over 170437 frames.
LOG (transform-feats[5.5.630~2-4225a]:main():transform-feats.cc:161) Applied transform to 343 utterances; 0 had errors.
LOG (subsample-feats[5.5.630~2-4225a]:main():subsample-feats.cc:115) Processed 343 feature matrices; 0 with errors.
LOG (subsample-feats[5.5.630~2-4225a]:main():subsample-feats.cc:117) Processed 170437 input frames and 85301 output frames.
LOG (subsample-feats[5.5.630~2-4225a]:main():subsample-feats.cc:115) Processed 341 feature matrices; 0 with errors.
LOG (subsample-feats[5.5.630~2-4225a]:main():subsample-feats.cc:117) Processed 165241 input frames and 82713 output frames.
LOG (ivector-extractor-acc-stats[5.5.630~2-4225a]:main():ivector-extractor-acc-stats.cc:151) Done 341 files, 0 with errors.  Total frames 82713
LOG (ivector-extractor-acc-stats[5.5.630~2-4225a]:main():ivector-extractor-acc-stats.cc:151) Done 343 files, 0 with errors.  Total frames 85301
LOG (transform-feats[5.5.630~2-4225a]:main():transform-feats.cc:158) Overall average [pseudo-]logdet is -131.368 over 169075 frames.
LOG (transform-feats[5.5.630~2-4225a]:main():transform-feats.cc:161) Applied transform to 346 utterances; 0 had errors.
LOG (subsample-feats[5.5.630~2-4225a]:main():subsample-feats.cc:115) Processed 346 feature matrices; 0 with errors.
LOG (subsample-feats[5.5.630~2-4225a]:main():subsample-feats.cc:117) Processed 169075 input frames and 84632 output frames.
LOG (ivector-extractor-acc-stats[5.5.630~2-4225a]:main():ivector-extractor-acc-stats.cc:159) Wrote stats to -
LOG (ivector-extractor-acc-stats[5.5.630~2-4225a]:main():ivector-extractor-acc-stats.cc:151) Done 346 files, 0 with errors.  Total frames 84632
LOG (ivector-extractor-acc-stats[5.5.630~2-4225a]:main():ivector-extractor-acc-stats.cc:159) Wrote stats to -
LOG (ivector-extractor-acc-stats[5.5.630~2-4225a]:main():ivector-extractor-acc-stats.cc:159) Wrote stats to -
LOG (ivector-extractor-sum-accs[5.5.630~2-4225a]:main():ivector-extractor-sum-accs.cc:83) Wrote summed stats to expDNN/extractor/acc.9.33
# Accounting: time=113 threads=1
# Ended (code 0) at Mon May 18 08:49:53 UTC 2020, elapsed time 113 seconds
