# ivector-extractor-sum-accs --parallel=true "ivector-extractor-acc-stats --num-threads=4 expDNN/extractor/2.ie 'ark,s,cs:splice-feats --left-context=3 --right-context=3 scp:expDNN/diag_ubm/vin_2k5_argumented_youtube_subset/split200/101/feats.scp ark:- | transform-feats expDNN/extractor/final.mat ark:- ark:- | subsample-feats --n=2 ark:- ark:- |' 'ark,s,cs:gunzip -c expDNN/extractor/post.101.gz|' -|" "ivector-extractor-acc-stats --num-threads=4 expDNN/extractor/2.ie 'ark,s,cs:splice-feats --left-context=3 --right-context=3 scp:expDNN/diag_ubm/vin_2k5_argumented_youtube_subset/split200/102/feats.scp ark:- | transform-feats expDNN/extractor/final.mat ark:- ark:- | subsample-feats --n=2 ark:- ark:- |' 'ark,s,cs:gunzip -c expDNN/extractor/post.102.gz|' -|" "ivector-extractor-acc-stats --num-threads=4 expDNN/extractor/2.ie 'ark,s,cs:splice-feats --left-context=3 --right-context=3 scp:expDNN/diag_ubm/vin_2k5_argumented_youtube_subset/split200/103/feats.scp ark:- | transform-feats expDNN/extractor/final.mat ark:- ark:- | subsample-feats --n=2 ark:- ark:- |' 'ark,s,cs:gunzip -c expDNN/extractor/post.103.gz|' -|" "ivector-extractor-acc-stats --num-threads=4 expDNN/extractor/2.ie 'ark,s,cs:splice-feats --left-context=3 --right-context=3 scp:expDNN/diag_ubm/vin_2k5_argumented_youtube_subset/split200/104/feats.scp ark:- | transform-feats expDNN/extractor/final.mat ark:- ark:- | subsample-feats --n=2 ark:- ark:- |' 'ark,s,cs:gunzip -c expDNN/extractor/post.104.gz|' -|" expDNN/extractor/acc.2.26 
# Started at Mon May 18 08:31:43 UTC 2020
#
ivector-extractor-sum-accs --parallel=true "ivector-extractor-acc-stats --num-threads=4 expDNN/extractor/2.ie 'ark,s,cs:splice-feats --left-context=3 --right-context=3 scp:expDNN/diag_ubm/vin_2k5_argumented_youtube_subset/split200/101/feats.scp ark:- | transform-feats expDNN/extractor/final.mat ark:- ark:- | subsample-feats --n=2 ark:- ark:- |' 'ark,s,cs:gunzip -c expDNN/extractor/post.101.gz|' -|" "ivector-extractor-acc-stats --num-threads=4 expDNN/extractor/2.ie 'ark,s,cs:splice-feats --left-context=3 --right-context=3 scp:expDNN/diag_ubm/vin_2k5_argumented_youtube_subset/split200/102/feats.scp ark:- | transform-feats expDNN/extractor/final.mat ark:- ark:- | subsample-feats --n=2 ark:- ark:- |' 'ark,s,cs:gunzip -c expDNN/extractor/post.102.gz|' -|" "ivector-extractor-acc-stats --num-threads=4 expDNN/extractor/2.ie 'ark,s,cs:splice-feats --left-context=3 --right-context=3 scp:expDNN/diag_ubm/vin_2k5_argumented_youtube_subset/split200/103/feats.scp ark:- | transform-feats expDNN/extractor/final.mat ark:- ark:- | subsample-feats --n=2 ark:- ark:- |' 'ark,s,cs:gunzip -c expDNN/extractor/post.103.gz|' -|" "ivector-extractor-acc-stats --num-threads=4 expDNN/extractor/2.ie 'ark,s,cs:splice-feats --left-context=3 --right-context=3 scp:expDNN/diag_ubm/vin_2k5_argumented_youtube_subset/split200/104/feats.scp ark:- | transform-feats expDNN/extractor/final.mat ark:- ark:- | subsample-feats --n=2 ark:- ark:- |' 'ark,s,cs:gunzip -c expDNN/extractor/post.104.gz|' -|" expDNN/extractor/acc.2.26 
ivector-extractor-acc-stats --num-threads=4 expDNN/extractor/2.ie 'ark,s,cs:splice-feats --left-context=3 --right-context=3 scp:expDNN/diag_ubm/vin_2k5_argumented_youtube_subset/split200/101/feats.scp ark:- | transform-feats expDNN/extractor/final.mat ark:- ark:- | subsample-feats --n=2 ark:- ark:- |' 'ark,s,cs:gunzip -c expDNN/extractor/post.101.gz|' - 
ivector-extractor-acc-stats --num-threads=4 expDNN/extractor/2.ie 'ark,s,cs:splice-feats --left-context=3 --right-context=3 scp:expDNN/diag_ubm/vin_2k5_argumented_youtube_subset/split200/104/feats.scp ark:- | transform-feats expDNN/extractor/final.mat ark:- ark:- | subsample-feats --n=2 ark:- ark:- |' 'ark,s,cs:gunzip -c expDNN/extractor/post.104.gz|' - 
ivector-extractor-acc-stats --num-threads=4 expDNN/extractor/2.ie 'ark,s,cs:splice-feats --left-context=3 --right-context=3 scp:expDNN/diag_ubm/vin_2k5_argumented_youtube_subset/split200/103/feats.scp ark:- | transform-feats expDNN/extractor/final.mat ark:- ark:- | subsample-feats --n=2 ark:- ark:- |' 'ark,s,cs:gunzip -c expDNN/extractor/post.103.gz|' - 
subsample-feats --n=2 ark:- ark:- 
splice-feats --left-context=3 --right-context=3 scp:expDNN/diag_ubm/vin_2k5_argumented_youtube_subset/split200/101/feats.scp ark:- 
splice-feats --left-context=3 --right-context=3 scp:expDNN/diag_ubm/vin_2k5_argumented_youtube_subset/split200/104/feats.scp ark:- 
subsample-feats --n=2 ark:- ark:- 
transform-feats expDNN/extractor/final.mat ark:- ark:- 
LOG (ivector-extractor-acc-stats[5.5.630~2-4225a]:ComputeDerivedVars():ivector-extractor.cc:183) Computing derived variables for iVector extractor
subsample-feats --n=2 ark:- ark:- 
transform-feats expDNN/extractor/final.mat ark:- ark:- 
splice-feats --left-context=3 --right-context=3 scp:expDNN/diag_ubm/vin_2k5_argumented_youtube_subset/split200/103/feats.scp ark:- 
transform-feats expDNN/extractor/final.mat ark:- ark:- 
ivector-extractor-acc-stats --num-threads=4 expDNN/extractor/2.ie 'ark,s,cs:splice-feats --left-context=3 --right-context=3 scp:expDNN/diag_ubm/vin_2k5_argumented_youtube_subset/split200/102/feats.scp ark:- | transform-feats expDNN/extractor/final.mat ark:- ark:- | subsample-feats --n=2 ark:- ark:- |' 'ark,s,cs:gunzip -c expDNN/extractor/post.102.gz|' - 
LOG (ivector-extractor-acc-stats[5.5.630~2-4225a]:ComputeDerivedVars():ivector-extractor.cc:183) Computing derived variables for iVector extractor
LOG (ivector-extractor-acc-stats[5.5.630~2-4225a]:ComputeDerivedVars():ivector-extractor.cc:183) Computing derived variables for iVector extractor
subsample-feats --n=2 ark:- ark:- 
transform-feats expDNN/extractor/final.mat ark:- ark:- 
splice-feats --left-context=3 --right-context=3 scp:expDNN/diag_ubm/vin_2k5_argumented_youtube_subset/split200/102/feats.scp ark:- 
LOG (ivector-extractor-acc-stats[5.5.630~2-4225a]:ComputeDerivedVars():ivector-extractor.cc:183) Computing derived variables for iVector extractor
LOG (ivector-extractor-acc-stats[5.5.630~2-4225a]:ComputeDerivedVars():ivector-extractor.cc:204) Done.
LOG (ivector-extractor-acc-stats[5.5.630~2-4225a]:ComputeDerivedVars():ivector-extractor.cc:204) Done.
LOG (ivector-extractor-acc-stats[5.5.630~2-4225a]:ComputeDerivedVars():ivector-extractor.cc:204) Done.
LOG (ivector-extractor-acc-stats[5.5.630~2-4225a]:ComputeDerivedVars():ivector-extractor.cc:204) Done.
LOG (transform-feats[5.5.630~2-4225a]:main():transform-feats.cc:158) Overall average [pseudo-]logdet is -131.368 over 108309 frames.
LOG (transform-feats[5.5.630~2-4225a]:main():transform-feats.cc:161) Applied transform to 289 utterances; 0 had errors.
LOG (subsample-feats[5.5.630~2-4225a]:main():subsample-feats.cc:115) Processed 289 feature matrices; 0 with errors.
LOG (subsample-feats[5.5.630~2-4225a]:main():subsample-feats.cc:117) Processed 108309 input frames and 54228 output frames.
LOG (ivector-extractor-acc-stats[5.5.630~2-4225a]:main():ivector-extractor-acc-stats.cc:151) Done 289 files, 0 with errors.  Total frames 54228
LOG (transform-feats[5.5.630~2-4225a]:main():transform-feats.cc:158) Overall average [pseudo-]logdet is -131.368 over 108916 frames.
LOG (transform-feats[5.5.630~2-4225a]:main():transform-feats.cc:161) Applied transform to 287 utterances; 0 had errors.
LOG (subsample-feats[5.5.630~2-4225a]:main():subsample-feats.cc:115) Processed 287 feature matrices; 0 with errors.
LOG (subsample-feats[5.5.630~2-4225a]:main():subsample-feats.cc:117) Processed 108916 input frames and 54530 output frames.
LOG (ivector-extractor-acc-stats[5.5.630~2-4225a]:main():ivector-extractor-acc-stats.cc:151) Done 287 files, 0 with errors.  Total frames 54530
LOG (ivector-extractor-acc-stats[5.5.630~2-4225a]:main():ivector-extractor-acc-stats.cc:159) Wrote stats to -
LOG (transform-feats[5.5.630~2-4225a]:main():transform-feats.cc:158) Overall average [pseudo-]logdet is -131.368 over 118536 frames.
LOG (transform-feats[5.5.630~2-4225a]:main():transform-feats.cc:161) Applied transform to 290 utterances; 0 had errors.
LOG (subsample-feats[5.5.630~2-4225a]:main():subsample-feats.cc:115) Processed 290 feature matrices; 0 with errors.
LOG (subsample-feats[5.5.630~2-4225a]:main():subsample-feats.cc:117) Processed 118536 input frames and 59343 output frames.
LOG (transform-feats[5.5.630~2-4225a]:main():transform-feats.cc:158) Overall average [pseudo-]logdet is -131.368 over 105132 frames.
LOG (transform-feats[5.5.630~2-4225a]:main():transform-feats.cc:161) Applied transform to 288 utterances; 0 had errors.
LOG (subsample-feats[5.5.630~2-4225a]:main():subsample-feats.cc:115) Processed 288 feature matrices; 0 with errors.
LOG (subsample-feats[5.5.630~2-4225a]:main():subsample-feats.cc:117) Processed 105132 input frames and 52641 output frames.
LOG (ivector-extractor-acc-stats[5.5.630~2-4225a]:main():ivector-extractor-acc-stats.cc:151) Done 290 files, 0 with errors.  Total frames 59343
LOG (ivector-extractor-acc-stats[5.5.630~2-4225a]:main():ivector-extractor-acc-stats.cc:151) Done 288 files, 0 with errors.  Total frames 52641
LOG (ivector-extractor-acc-stats[5.5.630~2-4225a]:main():ivector-extractor-acc-stats.cc:159) Wrote stats to -
LOG (ivector-extractor-acc-stats[5.5.630~2-4225a]:main():ivector-extractor-acc-stats.cc:159) Wrote stats to -
LOG (ivector-extractor-acc-stats[5.5.630~2-4225a]:main():ivector-extractor-acc-stats.cc:159) Wrote stats to -
LOG (ivector-extractor-sum-accs[5.5.630~2-4225a]:main():ivector-extractor-sum-accs.cc:83) Wrote summed stats to expDNN/extractor/acc.2.26
# Accounting: time=112 threads=1
# Ended (code 0) at Mon May 18 08:33:35 UTC 2020, elapsed time 112 seconds
