# gmm-global-get-post --n=5 --min-post=0.025 expDNN/extractor/final.dubm "ark,s,cs:apply-cmvn-online --config=expDNN/extractor/online_cmvn.conf --spk2utt=ark:expDNN/diag_ubm/vin_2k5_argumented_youtube_subset/split200/31/spk2utt expDNN/extractor/global_cmvn.stats scp:expDNN/diag_ubm/vin_2k5_argumented_youtube_subset/split200/31/feats.scp ark:- | splice-feats --left-context=3 --right-context=3 ark:- ark:- | transform-feats expDNN/extractor/final.mat ark:- ark:- | subsample-feats --n=2 ark:- ark:- |" ark:- | scale-post ark:- 0.2 "ark:|gzip -c >expDNN/extractor/post.31.gz" 
# Started at Mon May 18 08:27:11 UTC 2020
#
gmm-global-get-post --n=5 --min-post=0.025 expDNN/extractor/final.dubm 'ark,s,cs:apply-cmvn-online --config=expDNN/extractor/online_cmvn.conf --spk2utt=ark:expDNN/diag_ubm/vin_2k5_argumented_youtube_subset/split200/31/spk2utt expDNN/extractor/global_cmvn.stats scp:expDNN/diag_ubm/vin_2k5_argumented_youtube_subset/split200/31/feats.scp ark:- | splice-feats --left-context=3 --right-context=3 ark:- ark:- | transform-feats expDNN/extractor/final.mat ark:- ark:- | subsample-feats --n=2 ark:- ark:- |' ark:- 
scale-post ark:- 0.2 'ark:|gzip -c >expDNN/extractor/post.31.gz' 
splice-feats --left-context=3 --right-context=3 ark:- ark:- 
transform-feats expDNN/extractor/final.mat ark:- ark:- 
apply-cmvn-online --config=expDNN/extractor/online_cmvn.conf --spk2utt=ark:expDNN/diag_ubm/vin_2k5_argumented_youtube_subset/split200/31/spk2utt expDNN/extractor/global_cmvn.stats scp:expDNN/diag_ubm/vin_2k5_argumented_youtube_subset/split200/31/feats.scp ark:- 
subsample-feats --n=2 ark:- ark:- 
LOG (apply-cmvn-online[5.5.630~2-4225a]:main():apply-cmvn-online.cc:133) Applied online CMVN to 216 files, or 64058 frames.
LOG (transform-feats[5.5.630~2-4225a]:main():transform-feats.cc:158) Overall average [pseudo-]logdet is -131.368 over 64058 frames.
LOG (transform-feats[5.5.630~2-4225a]:main():transform-feats.cc:161) Applied transform to 216 utterances; 0 had errors.
LOG (subsample-feats[5.5.630~2-4225a]:main():subsample-feats.cc:115) Processed 216 feature matrices; 0 with errors.
LOG (subsample-feats[5.5.630~2-4225a]:main():subsample-feats.cc:117) Processed 64058 input frames and 32077 output frames.
LOG (gmm-global-get-post[5.5.630~2-4225a]:main():gmm-global-get-post.cc:115) Done 216 files, 0 with errors, average UBM log-likelihood is -57.8934 over 32077 frames.
LOG (scale-post[5.5.630~2-4225a]:main():scale-post.cc:79) Done 216 posteriors;  0 had no scales.
# Accounting: time=2 threads=1
# Ended (code 0) at Mon May 18 08:27:13 UTC 2020, elapsed time 2 seconds
