# gmm-global-acc-stats "--gselect=ark,s,cs:gunzip -c expDNN/diag_ubm/gselect.13.gz|" expDNN/diag_ubm/0.dubm "ark,s,cs:apply-cmvn-online --config=conf/online_cmvn.conf --spk2utt=ark:expDNN/diag_ubm/vin_2k5_argumented_youtube_subset/split50/13/spk2utt expDNN/diag_ubm/global_cmvn.stats scp:expDNN/diag_ubm/vin_2k5_argumented_youtube_subset/split50/13/feats.scp ark:- | splice-feats --left-context=3 --right-context=3 ark:- ark:- | transform-feats expDNN/diag_ubm/final.mat ark:- ark:- | subsample-feats --n=2 ark:- ark:- |" expDNN/diag_ubm/0.13.acc 
# Started at Mon May 18 08:26:21 UTC 2020
#
gmm-global-acc-stats '--gselect=ark,s,cs:gunzip -c expDNN/diag_ubm/gselect.13.gz|' expDNN/diag_ubm/0.dubm 'ark,s,cs:apply-cmvn-online --config=conf/online_cmvn.conf --spk2utt=ark:expDNN/diag_ubm/vin_2k5_argumented_youtube_subset/split50/13/spk2utt expDNN/diag_ubm/global_cmvn.stats scp:expDNN/diag_ubm/vin_2k5_argumented_youtube_subset/split50/13/feats.scp ark:- | splice-feats --left-context=3 --right-context=3 ark:- ark:- | transform-feats expDNN/diag_ubm/final.mat ark:- ark:- | subsample-feats --n=2 ark:- ark:- |' expDNN/diag_ubm/0.13.acc 
transform-feats expDNN/diag_ubm/final.mat ark:- ark:- 
splice-feats --left-context=3 --right-context=3 ark:- ark:- 
subsample-feats --n=2 ark:- ark:- 
apply-cmvn-online --config=conf/online_cmvn.conf --spk2utt=ark:expDNN/diag_ubm/vin_2k5_argumented_youtube_subset/split50/13/spk2utt expDNN/diag_ubm/global_cmvn.stats scp:expDNN/diag_ubm/vin_2k5_argumented_youtube_subset/split50/13/feats.scp ark:- 
LOG (apply-cmvn-online[5.5.630~2-4225a]:main():apply-cmvn-online.cc:133) Applied online CMVN to 1230 files, or 492181 frames.
LOG (transform-feats[5.5.630~2-4225a]:main():transform-feats.cc:158) Overall average [pseudo-]logdet is -131.368 over 492181 frames.
LOG (transform-feats[5.5.630~2-4225a]:main():transform-feats.cc:161) Applied transform to 1230 utterances; 0 had errors.
LOG (subsample-feats[5.5.630~2-4225a]:main():subsample-feats.cc:115) Processed 1230 feature matrices; 0 with errors.
LOG (subsample-feats[5.5.630~2-4225a]:main():subsample-feats.cc:117) Processed 492181 input frames and 246416 output frames.
LOG (gmm-global-acc-stats[5.5.630~2-4225a]:main():gmm-global-acc-stats.cc:148) Done 1230 files; 0 with errors.
LOG (gmm-global-acc-stats[5.5.630~2-4225a]:main():gmm-global-acc-stats.cc:150) Overall likelihood per frame = -51.3714 over 246416 (weighted) frames.
LOG (gmm-global-acc-stats[5.5.630~2-4225a]:main():gmm-global-acc-stats.cc:155) Written accs to expDNN/diag_ubm/0.13.acc
# Accounting: time=8 threads=1
# Ended (code 0) at Mon May 18 08:26:29 UTC 2020, elapsed time 8 seconds
